{
    "format": "SubViewer 1.0",
    "opt": "subviewer",
    "header":
    {
        "title": "A typical subtitle",
        "author": "",
        "source": "",
        "program": "SubConvert",
        "filepath": "subviewer-1.txt",
        "delay": "0",
        "cd_track": "0",
        "comment": "Converted to subviewer format with SubConvert",
        "color": "&HFFFFFF",
        "font_style": "no",
        "font_size": "24",
        "font": "Tahoma"
    },
    "subs":
    [

        {
            "__Subtitle__": true,
            "start": {"__FrameTime__": true, "ms": 0},
            "end": {"__FrameTime__": true, "ms": 850},
            "text": "This is first subtitle."
        },

        {
            "__Subtitle__": true,
            "start": {"__FrameTime__": true, "ms": 1000},
            "end": {"__FrameTime__": true, "ms": 3550},
            "text": "This is a simple subtitle<br/>which has more than one line."
        }
    ]
}
