{
    "format": "Micro DVD",
    "opt": "microdvd",
    "subs":
    [

        {
            "__Subtitle__": true,
            "start": {"__FrameTime__": true, "frames": 0},
            "end": {"__FrameTime__": true, "frames": 21},
            "text": "This is first subtitle."
        },

        {
            "__Subtitle__": true,
            "start": {"__FrameTime__": true, "frames": 25},
            "end": {"__FrameTime__": true, "frames": 89},
            "text": "This is a simple subtitle<br/>which has more than one line."
        },

        {
            "__Subtitle__": true,
            "start": {"__FrameTime__": true, "frames": 100},
            "end": {"__FrameTime__": true, "frames": 125},
            "text": "<i><b><u>This is formatted text</u></b></i><br/>and it's second line"
        }
    ]
}

